<svg width="110" height="31" viewBox="0 0 110 31" fill="none" xmlns="http://www.w3.org/2000/svg">
<g clip-path="url(#clip0_109_1643)">
<path d="M46.8117 13.7722C47.679 14.0951 48.4358 14.6443 48.9972 15.3581C49.4995 16.041 49.7598 16.8617 49.7394 17.6983C49.7648 18.2889 49.6612 18.878 49.4353 19.4275C49.2094 19.9771 48.8662 20.4749 48.4279 20.8887C47.5418 21.6032 46.4394 22.0226 45.2854 22.0844C44.1314 22.1462 42.9876 21.847 42.0247 21.2314C41.2076 20.6143 40.6397 19.742 40.4189 18.765L42.0247 18.0037C42.1734 18.7487 42.5443 19.4359 43.0919 19.9812C43.6055 20.4295 44.2799 20.6681 44.9727 20.6468C45.763 20.6794 46.5355 20.4147 47.1267 19.9085C47.3986 19.6621 47.6127 19.3625 47.7546 19.0299C47.8965 18.6974 47.963 18.3394 47.9495 17.9801C47.9623 17.3776 47.7575 16.7896 47.37 16.3165C46.9083 15.7817 46.314 15.3678 45.642 15.1128L43.8325 14.3703C42.9643 14.0581 42.199 13.5274 41.6162 12.8336C41.1257 12.1795 40.872 11.3885 40.894 10.582C40.8822 10.1027 40.9819 9.6269 41.1859 9.18949C41.3898 8.75208 41.6927 8.36414 42.0726 8.05411C42.9107 7.37107 43.984 7.01496 45.0812 7.05591C45.8906 7.0355 46.691 7.2248 47.3985 7.60406C48.0684 7.98133 48.6042 8.54474 48.9357 9.22039L47.4723 10.1205C47.2016 9.63272 46.8188 9.21089 46.3532 8.88714C45.9403 8.61303 45.4491 8.46942 44.9477 8.47626C44.6484 8.46565 44.3498 8.51202 44.0691 8.61272C43.7883 8.71342 43.531 8.86648 43.3119 9.06311C43.1041 9.25662 42.9407 9.48989 42.8322 9.74789C42.7238 10.0059 42.6726 10.2829 42.682 10.5611C42.6723 11.0439 42.8456 11.5136 43.1695 11.8822C43.5902 12.3179 44.1083 12.6557 44.6846 12.8703L46.8117 13.7722Z" fill="#6200EE"/>
<path d="M57.5092 21.7305V9.02552H53.3008V7.40063H63.4899V9.02552H59.2979V21.7298L57.5092 21.7305Z" fill="#6200EE"/>
<path d="M71.4767 10.6014L69.1049 15.8775H73.8433L71.4767 10.6014ZM71.4767 6.83337L78.2403 21.7299H76.3205L74.3881 17.3318H68.578L66.6455 21.7299H64.7236L71.4767 6.83337Z" fill="#6200EE"/>
<path d="M90.4189 14.3312H96.5581V14.8107C96.6132 15.7844 96.4653 16.7588 96.1231 17.6766C95.781 18.5944 95.2515 19.4369 94.5658 20.1545C93.8479 20.8234 92.9944 21.3424 92.0586 21.6793C91.1229 22.0161 90.1251 22.1635 89.1275 22.1122C88.4536 22.1148 87.7815 22.0425 87.1248 21.8967C86.5166 21.7609 85.929 21.5503 85.3767 21.27C84.1904 20.6557 83.2103 19.729 82.5509 18.598C81.8742 17.4081 81.5309 16.069 81.5549 14.7126C81.5377 13.6097 81.7377 12.5136 82.1443 11.4824C82.5432 10.5179 83.157 9.64938 83.9423 8.93807C84.6138 8.32439 85.41 7.85121 86.2807 7.54833C87.2269 7.22578 88.225 7.06687 89.2287 7.07893C90.5127 7.04863 91.7863 7.30664 92.9487 7.83253C94.0149 8.34154 94.918 9.11915 95.5621 10.0828L94.0784 11.2281C93.6029 10.4193 92.9114 9.74765 92.0756 9.2828C91.2228 8.83284 90.2621 8.60671 89.2899 8.62708C88.504 8.59966 87.7212 8.73583 86.9949 9.02631C86.2687 9.31679 85.616 9.75473 85.0816 10.3102C83.9701 11.521 83.3906 13.1002 83.4653 14.7146C83.4358 15.4853 83.5651 16.254 83.8459 16.9762C84.1267 17.6985 84.5533 18.36 85.1012 18.9225C85.641 19.4635 86.2927 19.8894 87.0141 20.1727C87.7356 20.4559 88.5107 20.5902 89.2895 20.5668C90.6573 20.6102 91.9899 20.1439 93.0097 19.265C94.0084 18.3855 94.6041 17.1606 94.6663 15.8589H90.418L90.4189 14.3312Z" fill="#6200EE"/>
<path d="M102.031 21.7305V7.40063H109.879V8.95644H103.8V13.0676H109.879V14.6536H103.8V20.1441H109.879V21.7301L102.031 21.7305Z" fill="#6200EE"/>
<path d="M16.29 0L12.9598 1.85149L16.2152 3.66157L19.5453 1.81008L16.29 0ZM10.4046 3.2698L0.0771484 9.01373V24.2012L6.42361 27.7266L9.75376 25.8751L19.7106 20.3396V16.7142L18.6477 16.1222H18.6538L12.1148 12.4851L22.105 6.93138L25.3788 8.75158V20.1152L14.9458 25.9149L18.188 27.7316L28.5199 21.9876V6.79861L22.1751 3.27093L18.8452 5.12242L8.88839 10.658V14.2788L9.95123 14.8708H9.94516L16.4839 18.5079L6.49278 24.0659L3.21894 22.2457V10.8864L13.6546 5.08664L10.4046 3.2698ZM12.3758 27.3384L9.04566 29.1899L12.301 31L15.631 29.1485L12.3758 27.3384Z" fill="#6200EE"/>
</g>
<defs>
<clipPath id="clip0_109_1643">
<rect width="109.802" height="31" fill="white" transform="translate(0.0761719)"/>
</clipPath>
</defs>
</svg>
