<svg width="328" height="225" viewBox="0 0 328 225" fill="none" xmlns="http://www.w3.org/2000/svg">
<path fill-rule="evenodd" clip-rule="evenodd" d="M96.0996 1.37286C120.742 5.13531 133.352 28.4336 155.161 39.1284C181.628 52.1076 223.948 46.139 236.543 70.2448C248.847 93.7948 225.623 120.66 208.939 142.059C195.534 159.251 170.818 164.52 152.592 177.916C132.177 192.922 122.789 224.634 96.0996 224.997C69.5006 225.358 55.8311 196.94 38.3139 179.469C24.8917 166.083 12.896 152.357 6.37032 135.506C-0.225705 118.474 -1.06437 100.988 0.993666 83.0995C3.60222 60.4254 1.22826 34.4561 19.8352 18.4667C39.0055 1.99323 69.5971 -2.67357 96.0996 1.37286Z" fill="#FAFBFC"/>
<path d="M116.902 184.45C115.137 185.059 113.242 185.212 111.399 184.893C109.557 184.574 107.829 183.795 106.383 182.63C102.698 179.594 101.543 174.591 100.603 169.958L97.8232 156.257L103.644 160.192C107.829 163.022 112.109 165.943 115.007 170.042C117.905 174.142 119.17 179.738 116.842 184.173" fill="#E6E6E6"/>
<path d="M116.404 201.038C116.993 196.825 117.599 192.557 117.186 188.298C116.819 184.516 115.644 180.822 113.251 177.793C111.981 176.188 110.436 174.813 108.685 173.73C108.229 173.447 107.808 174.157 108.263 174.439C111.293 176.319 113.636 179.096 114.955 182.368C116.412 186.007 116.646 189.974 116.395 193.84C116.243 196.178 115.922 198.501 115.597 200.82C115.572 200.925 115.588 201.035 115.642 201.129C115.696 201.223 115.785 201.293 115.89 201.325C115.996 201.354 116.11 201.339 116.207 201.286C116.303 201.232 116.374 201.143 116.404 201.038Z" fill="#F2F2F2"/>
<path d="M110.73 193.582C109.973 194.712 108.933 195.631 107.709 196.251C106.486 196.872 105.12 197.172 103.744 197.123C100.207 196.958 97.2581 194.534 94.6038 192.233L86.7529 185.426L91.9489 185.182C95.6856 185.006 99.5186 184.843 103.078 185.974C106.637 187.106 109.919 189.829 110.57 193.446" fill="#E6E6E6"/>
<path d="M118.068 203.461C115.233 198.534 111.944 193.059 106.068 191.309C104.434 190.824 102.72 190.65 101.02 190.797C100.484 190.842 100.618 191.654 101.153 191.608C104.003 191.376 106.848 192.115 109.208 193.701C111.48 195.219 113.248 197.33 114.745 199.568C115.662 200.939 116.483 202.368 117.304 203.795C117.567 204.251 118.334 203.922 118.068 203.461V203.461Z" fill="#F2F2F2"/>
<path d="M194.065 104.767L132.249 155.078C131.471 155.709 130.47 156.012 129.465 155.92C128.46 155.827 127.534 155.347 126.889 154.585L100.83 123.71C100.187 122.946 99.8786 121.963 99.9727 120.977C100.067 119.99 100.556 119.08 101.332 118.447L163.148 68.1362C163.926 67.5046 164.927 67.2018 165.932 67.2941C166.937 67.3865 167.864 67.8665 168.509 68.6289L194.567 99.5035C195.21 100.267 195.519 101.25 195.425 102.237C195.331 103.224 194.842 104.134 194.065 104.767Z" fill="#CCCCCC"/>
<path d="M191.588 103.252L131.193 152.406C130.792 152.731 130.277 152.887 129.759 152.84C129.241 152.792 128.764 152.545 128.432 152.152L103.551 122.673C103.22 122.28 103.061 121.773 103.109 121.265C103.158 120.757 103.409 120.288 103.809 119.962L164.205 70.8077C164.605 70.4823 165.121 70.3263 165.639 70.3739C166.157 70.4215 166.634 70.6688 166.966 71.0615L191.847 100.541C192.178 100.934 192.337 101.441 192.289 101.949C192.24 102.457 191.988 102.926 191.588 103.252Z" fill="white"/>
<path d="M194.373 113.542L181.951 112.4L190.842 105.529L195.631 111.203C195.818 111.42 195.934 111.687 195.963 111.969C195.993 112.251 195.935 112.536 195.798 112.785C195.707 112.954 195.584 113.105 195.434 113.227C195.287 113.346 195.118 113.435 194.936 113.489C194.754 113.543 194.562 113.561 194.373 113.542Z" fill="#CCCCCC"/>
<path d="M169.427 91.6928L138.874 116.559C138.687 116.711 138.472 116.825 138.241 116.895C138.009 116.965 137.766 116.99 137.524 116.968C137.283 116.946 137.048 116.877 136.834 116.766C136.62 116.655 136.43 116.503 136.275 116.32C136.121 116.137 136.004 115.925 135.933 115.698C135.861 115.471 135.836 115.231 135.859 114.995C135.881 114.758 135.951 114.527 136.064 114.317C136.178 114.106 136.332 113.92 136.519 113.768L167.071 88.9018C167.258 88.75 167.473 88.6357 167.705 88.5655C167.937 88.4953 168.18 88.4706 168.421 88.4928C168.663 88.5149 168.897 88.5836 169.111 88.6948C169.326 88.8059 169.516 88.9575 169.67 89.1407C169.825 89.324 169.941 89.5354 170.013 89.7628C170.084 89.9902 170.11 90.2293 170.087 90.4662C170.064 90.7032 169.994 90.9335 169.881 91.144C169.768 91.3544 169.614 91.5409 169.427 91.6928Z" fill="#CCCCCC"/>
<path d="M154.474 93.8581L133.868 110.628C133.491 110.935 133.006 111.082 132.518 111.037C132.031 110.993 131.582 110.759 131.269 110.389C130.957 110.019 130.807 109.542 130.853 109.064C130.898 108.585 131.136 108.144 131.513 107.837L152.118 91.0671C152.495 90.7604 152.981 90.6132 153.468 90.658C153.955 90.7028 154.405 90.9359 154.717 91.306C155.029 91.6761 155.179 92.1529 155.134 92.6315C155.088 93.1101 154.851 93.5513 154.474 93.8581Z" fill="#CCCCCC"/>
<path d="M122.546 128.155C125.732 128.155 128.314 125.62 128.314 122.492C128.314 119.363 125.732 116.828 122.546 116.828C119.361 116.828 116.778 119.363 116.778 122.492C116.778 125.62 119.361 128.155 122.546 128.155Z" fill="#6200EE"/>
<path d="M168.427 111.138C169.446 111.138 170.272 110.327 170.272 109.326C170.272 108.325 169.446 107.513 168.427 107.513C167.407 107.513 166.581 108.325 166.581 109.326C166.581 110.327 167.407 111.138 168.427 111.138Z" fill="#E6E6E6"/>
<path d="M173.4 107.09C174.42 107.09 175.246 106.279 175.246 105.278C175.246 104.277 174.42 103.465 173.4 103.465C172.381 103.465 171.555 104.277 171.555 105.278C171.555 106.279 172.381 107.09 173.4 107.09Z" fill="#E6E6E6"/>
<path d="M178.374 103.042C179.393 103.042 180.22 102.231 180.22 101.23C180.22 100.229 179.393 99.4175 178.374 99.4175C177.355 99.4175 176.528 100.229 176.528 101.23C176.528 102.231 177.355 103.042 178.374 103.042Z" fill="#E6E6E6"/>
<path d="M148.956 200.304L153.193 200.304L155.209 184.255L148.955 184.255L148.956 200.304Z" fill="#FFB8B8"/>
<path d="M147.875 198.946L156.22 198.946H156.22C156.918 198.946 157.61 199.081 158.255 199.343C158.9 199.606 159.487 199.99 159.98 200.475C160.474 200.96 160.866 201.536 161.133 202.169C161.401 202.803 161.538 203.482 161.538 204.168V204.338L147.875 204.338L147.875 198.946Z" fill="#2F2E41"/>
<path d="M133.749 200.304L137.986 200.304L140.002 184.255L133.748 184.255L133.749 200.304Z" fill="#FFB8B8"/>
<path d="M132.668 198.946L141.013 198.946H141.013C141.711 198.946 142.403 199.081 143.048 199.343C143.693 199.606 144.28 199.99 144.773 200.475C145.267 200.96 145.659 201.536 145.926 202.169C146.193 202.803 146.331 203.482 146.331 204.168V204.338L132.668 204.338L132.668 198.946Z" fill="#2F2E41"/>
<path d="M138.001 195.394H138L134.397 195.393C133.994 195.394 133.606 195.241 133.316 194.966C133.026 194.691 132.856 194.316 132.843 193.92L132.73 190.825C131.819 166.069 130.877 140.47 136.711 128.964L136.756 128.874L156.07 128.188L159.947 163.115C160.113 164.605 160.052 166.111 159.768 167.583L154.642 194.107C154.573 194.466 154.374 194.79 154.082 195.017C153.791 195.245 153.425 195.363 153.053 195.348L149.006 195.219C148.794 195.211 148.586 195.16 148.394 195.07C148.203 194.98 148.033 194.853 147.893 194.696C147.754 194.539 147.649 194.355 147.585 194.157C147.52 193.958 147.498 193.749 147.519 193.542L150.698 169.01C150.807 167.951 150.709 166.882 150.41 165.859L146.456 152.285C146.423 152.173 146.352 152.075 146.255 152.008C146.157 151.941 146.039 151.909 145.921 151.917C145.802 151.925 145.69 151.973 145.603 152.053C145.516 152.133 145.46 152.239 145.443 152.355L139.541 194.077C139.488 194.441 139.304 194.775 139.021 195.017C138.738 195.259 138.376 195.392 138.001 195.394Z" fill="#2F2E41"/>
<path d="M140.31 93.2677C144.999 93.2677 148.799 89.5355 148.799 84.9317C148.799 80.3279 144.999 76.5957 140.31 76.5957C135.622 76.5957 131.821 80.3279 131.821 84.9317C131.821 89.5355 135.622 93.2677 140.31 93.2677Z" fill="#FFB8B8"/>
<path d="M155.164 130.766H137.598C137.375 130.766 137.154 130.719 136.951 130.627C136.748 130.536 136.567 130.403 136.421 130.237C136.275 130.071 136.167 129.877 136.105 129.666C136.042 129.456 136.027 129.235 136.059 129.018L136.927 123.181L131.831 109.417C131.305 107.997 131.109 106.478 131.259 104.973C131.408 103.468 131.899 102.016 132.694 100.721C133.49 99.427 134.571 98.3241 135.857 97.4934C137.144 96.6627 138.603 96.1253 140.129 95.9207C142.302 95.623 144.516 96.0165 146.445 97.0435C148.374 98.0704 149.918 99.677 150.85 101.628L151.97 103.967L156.693 128.96C156.735 129.18 156.726 129.407 156.669 129.624C156.611 129.841 156.506 130.043 156.36 130.215C156.214 130.387 156.031 130.526 155.824 130.621C155.618 130.716 155.392 130.766 155.164 130.766H155.164Z" fill="#6200EE"/>
<path d="M118.084 145.406C118.612 145.285 119.108 145.053 119.535 144.724C119.962 144.395 120.31 143.978 120.556 143.502C120.801 143.027 120.937 142.504 120.955 141.972C120.972 141.439 120.87 140.909 120.657 140.419L134.344 110.052L126.514 108.115L115.522 138.574C114.707 138.981 114.073 139.667 113.74 140.503C113.406 141.339 113.397 142.265 113.712 143.107C114.028 143.949 114.647 144.649 115.453 145.072C116.259 145.496 117.195 145.615 118.084 145.406H118.084Z" fill="#FFB8B8"/>
<path d="M132.491 115.483L124.876 111.983C124.659 111.883 124.467 111.739 124.312 111.56C124.158 111.381 124.044 111.171 123.979 110.945C123.914 110.718 123.9 110.481 123.937 110.249C123.974 110.017 124.062 109.795 124.194 109.6L128.822 102.736C129.347 101.651 130.29 100.815 131.442 100.411C132.594 100.007 133.863 100.068 134.969 100.58C136.076 101.093 136.931 102.015 137.346 103.145C137.761 104.276 137.704 105.521 137.185 106.61L134.792 114.471C134.723 114.696 134.606 114.904 134.448 115.081C134.291 115.257 134.096 115.398 133.878 115.494C133.659 115.59 133.422 115.639 133.183 115.637C132.944 115.635 132.708 115.583 132.491 115.483H132.491Z" fill="#6200EE"/>
<path d="M175.181 67.2635C175.346 67.7712 175.396 68.3083 175.327 68.837C175.258 69.3658 175.072 69.8732 174.782 70.3236C174.491 70.774 174.104 71.1564 173.647 71.444C173.19 71.7315 172.674 71.9171 172.136 71.9877L152.585 99.0835L146.881 93.471L167.893 68.6016C167.832 67.7062 168.108 66.8199 168.668 66.1108C169.228 65.4016 170.033 64.9188 170.932 64.7539C171.83 64.5889 172.759 64.7533 173.542 65.2158C174.325 65.6784 174.908 66.407 175.181 67.2635Z" fill="#FFB8B8"/>
<path d="M157.106 95.903C157.134 96.1363 157.11 96.3728 157.036 96.5964C156.963 96.8199 156.841 97.0252 156.679 97.1982L151.028 103.243C150.342 104.238 149.282 104.925 148.08 105.154C146.879 105.383 145.634 105.135 144.618 104.464C143.603 103.792 142.9 102.753 142.663 101.574C142.427 100.394 142.676 99.1712 143.357 98.1722L146.99 90.7538C147.094 90.5421 147.243 90.3548 147.427 90.2047C147.611 90.0546 147.826 89.9453 148.057 89.8841C148.288 89.8229 148.53 89.8113 148.766 89.8501C149.002 89.8889 149.226 89.9772 149.424 90.1089L156.386 94.7394C156.584 94.8711 156.751 95.0432 156.875 95.244C157 95.4449 157.078 95.6696 157.106 95.903Z" fill="#6200EE"/>
<path d="M151.464 81.4422C151.459 80.6877 151.352 79.9373 151.147 79.2103C149.779 74.2475 144.73 71.2688 139.663 72.0163C138.678 71.7389 137.658 71.5986 136.633 71.5996C134.025 71.5996 131.503 72.5153 129.522 74.1813C127.542 75.8473 126.233 78.1538 125.833 80.6843L121.74 106.558H143.86L147.432 83.979C147.565 83.1399 147.596 82.2884 147.525 81.4422H151.464Z" fill="#2F2E41"/>
<path d="M178.957 204.526H106.03C105.939 204.526 105.851 204.49 105.786 204.427C105.721 204.363 105.685 204.277 105.685 204.187C105.685 204.097 105.721 204.01 105.786 203.947C105.851 203.883 105.939 203.847 106.03 203.847H178.957C179.049 203.847 179.137 203.883 179.202 203.947C179.267 204.01 179.303 204.097 179.303 204.187C179.303 204.277 179.267 204.363 179.202 204.427C179.137 204.49 179.049 204.526 178.957 204.526Z" fill="#CCCCCC"/>
<path d="M238.237 52.3602C238.743 52.3124 239.253 52.3741 239.732 52.5409C240.211 52.7077 240.646 52.9756 241.008 53.3257C241.371 53.6758 241.65 54.0996 241.827 54.5672C242.004 55.0348 242.075 55.5349 242.034 56.0322L253.339 60.9179L247.946 64.3359L238.038 59.1724C237.192 59.0495 236.421 58.6261 235.871 57.9823C235.322 57.3386 235.032 56.5192 235.056 55.6795C235.081 54.8398 235.418 54.0381 236.004 53.4264C236.59 52.8146 237.385 52.4352 238.237 52.3602V52.3602Z" fill="#A0616A"/>
<path d="M283.837 46.2657C288.525 46.2657 292.326 42.5336 292.326 37.9297C292.326 33.3259 288.525 29.5938 283.837 29.5938C279.148 29.5938 275.348 33.3259 275.348 37.9297C275.348 42.5336 279.148 46.2657 283.837 46.2657Z" fill="#A0616A"/>
<path d="M268.473 156.792L264.235 156.792L262.22 140.742L268.474 140.743L268.473 156.792Z" fill="#A0616A"/>
<path d="M269.553 160.825L255.891 160.825V160.655C255.891 159.969 256.028 159.29 256.295 158.657C256.563 158.023 256.954 157.447 257.448 156.963C257.942 156.478 258.528 156.093 259.173 155.831C259.819 155.568 260.51 155.433 261.209 155.433H261.209L269.554 155.433L269.553 160.825Z" fill="#2F2E41"/>
<path d="M286.1 156.792L281.862 156.792L279.847 140.742L286.1 140.743L286.1 156.792Z" fill="#A0616A"/>
<path d="M287.18 160.825L273.518 160.825V160.655C273.518 159.969 273.655 159.29 273.922 158.657C274.19 158.023 274.581 157.447 275.075 156.963C275.569 156.478 276.155 156.093 276.8 155.831C277.446 155.568 278.137 155.433 278.836 155.433H278.836L287.181 155.433L287.18 160.825Z" fill="#2F2E41"/>
<path d="M285.898 153.374C285.835 153.374 285.772 153.37 285.709 153.362L279.506 152.612C279.143 152.569 278.807 152.401 278.557 152.138C278.308 151.875 278.161 151.534 278.143 151.175L276.335 111.206C276.329 111.093 276.285 110.984 276.209 110.899C276.133 110.813 276.03 110.755 275.916 110.733C275.803 110.712 275.685 110.728 275.582 110.78C275.479 110.831 275.397 110.915 275.348 111.018L270.705 126.218L269.748 150.633C269.74 150.843 269.688 151.05 269.594 151.24C269.501 151.429 269.368 151.598 269.205 151.735C269.042 151.872 268.852 151.974 268.647 152.035C268.441 152.097 268.225 152.115 268.012 152.091L262.641 151.47C262.257 151.427 261.903 151.244 261.649 150.958C261.395 150.672 261.259 150.303 261.268 149.923L261.724 126.941L265.363 90.866L265.526 90.8719L287.653 91.7095L287.454 151.851C287.453 152.256 287.288 152.643 286.996 152.928C286.705 153.213 286.31 153.374 285.898 153.374H285.898Z" fill="#2F2E41"/>
<path d="M286.815 95.006C286.802 95.006 286.788 95.006 286.775 95.0056L264.489 94.4322C264.271 94.4266 264.056 94.3759 263.859 94.2833C263.662 94.1907 263.487 94.0584 263.345 93.8949C263.204 93.7315 263.099 93.5406 263.037 93.3347C262.976 93.1287 262.959 92.9124 262.989 92.6998L267.271 61.7495C267.539 59.6597 268.252 57.6488 269.364 55.848C270.477 54.0472 271.964 52.4971 273.728 51.2988C275.279 50.2499 277.041 49.5392 278.896 49.2145C280.75 48.8898 282.654 48.9585 284.479 49.4162C292.258 51.3518 296.925 59.5541 294.882 67.7003L288.326 93.8439C288.241 94.1748 288.047 94.4686 287.773 94.679C287.5 94.8895 287.163 95.0045 286.815 95.006Z" fill="#3F3D56"/>
<path d="M257.579 70.4287C256.11 70.4305 254.673 70.0112 253.444 69.2223L240.447 60.8493C240.257 60.7268 240.097 60.5648 239.977 60.3747C239.857 60.1846 239.782 59.9711 239.756 59.7492C239.729 59.5272 239.753 59.3024 239.825 59.0904C239.896 58.8784 240.015 58.6845 240.171 58.5223L242.129 56.4925C242.343 56.27 242.619 56.1158 242.923 56.05C243.227 55.9842 243.545 56.0099 243.834 56.1236L258.35 61.8003L271.798 52.3697C272.427 51.9287 273.142 51.6208 273.899 51.4653C274.655 51.3098 275.436 51.3101 276.192 51.4662C276.948 51.6224 277.663 51.9309 278.292 52.3724C278.92 52.8139 279.448 53.3786 279.843 54.0309C280.238 54.6832 280.49 55.4089 280.585 56.162C280.679 56.915 280.613 57.6792 280.391 58.406C280.17 59.1328 279.796 59.8065 279.296 60.3844C278.795 60.9623 278.178 61.4319 277.483 61.7635L260.862 69.6909C259.839 70.1777 258.716 70.43 257.579 70.4287Z" fill="#3F3D56"/>
<path d="M286.778 45.9016C288.226 46.2374 289.974 46.4951 291.009 45.4451C291.192 45.2469 291.356 45.0322 291.498 44.8037L292.851 42.7749C293.888 41.2208 294.943 39.6262 295.381 37.8191C295.633 36.7807 295.673 35.7034 295.497 34.6499C295.322 33.5964 294.935 32.5876 294.359 31.6822C293.783 30.7768 293.03 29.9927 292.143 29.3756C291.256 28.7584 290.253 28.3205 289.192 28.0873C287.172 27.6431 285.195 26.8788 283.129 27.0182C281.064 27.1576 278.641 27.1118 276.908 26C277.016 26.4957 277.6 28.6858 277.6 28.6858C277.6 28.6858 274.993 31.034 274.471 31.6195C275.155 31.3216 275.9 31.1818 276.648 31.2107C277.395 31.2396 278.127 31.4365 278.785 31.7862C279.443 32.136 280.011 32.6293 280.445 33.2283C280.879 33.8272 281.167 34.5159 281.288 35.2413C281.435 36.1325 281.349 37.1209 281.888 37.8524C282.401 38.5481 283.32 38.7918 284.093 39.1935C285.208 39.8169 286.059 40.8109 286.493 41.9961C286.927 43.1813 286.915 44.4797 286.46 45.6573L286.778 45.9016Z" fill="#2F2E41"/>
<path d="M276.585 97.9915H206.219C205.335 97.9905 204.487 97.6451 203.861 97.0309C203.236 96.4167 202.884 95.5839 202.883 94.7153V59.5706C202.884 58.702 203.236 57.8693 203.861 57.2551C204.487 56.6409 205.335 56.2954 206.219 56.2944H276.585C277.47 56.2954 278.318 56.6409 278.943 57.2551C279.569 57.8693 279.92 58.702 279.921 59.5706V94.7153C279.92 95.5839 279.569 96.4167 278.943 97.0309C278.318 97.6451 277.47 97.9905 276.585 97.9915Z" fill="#CCCCCC"/>
<path d="M275.777 95.6089H207.028C206.573 95.6084 206.136 95.4305 205.814 95.1141C205.491 94.7977 205.31 94.3687 205.31 93.9212V60.365C205.31 59.9175 205.491 59.4885 205.814 59.1721C206.136 58.8557 206.573 58.6777 207.028 58.6772H275.777C276.232 58.6777 276.669 58.8557 276.991 59.1721C277.314 59.4885 277.495 59.9175 277.495 60.365V93.9212C277.495 94.3687 277.314 94.7977 276.991 95.1141C276.669 95.4305 276.232 95.6084 275.777 95.6089Z" fill="white"/>
<path d="M271.795 104.081L264.063 96.4885L273.976 96.7346V103.194C273.979 103.443 273.905 103.686 273.764 103.893C273.623 104.1 273.422 104.26 273.187 104.353C273.03 104.418 272.861 104.451 272.69 104.452C272.524 104.451 272.359 104.418 272.205 104.354C272.051 104.291 271.912 104.198 271.795 104.081Z" fill="#CCCCCC"/>
<path d="M267.406 75.6381H232.627C232.198 75.6381 231.787 75.4707 231.484 75.1729C231.18 74.875 231.01 74.4709 231.01 74.0496C231.01 73.6284 231.18 73.2243 231.484 72.9264C231.787 72.6285 232.198 72.4612 232.627 72.4612H267.406C267.835 72.4612 268.246 72.6285 268.55 72.9264C268.853 73.2243 269.024 73.6284 269.024 74.0496C269.024 74.4709 268.853 74.875 268.55 75.1729C268.246 75.4707 267.835 75.6381 267.406 75.6381Z" fill="#CCCCCC"/>
<path d="M256.083 68.8871H232.628C232.415 68.8874 232.205 68.8466 232.008 68.7669C231.811 68.6872 231.633 68.5702 231.482 68.4227C231.332 68.2752 231.213 68.1 231.131 67.9071C231.05 67.7142 231.008 67.5075 231.008 67.2987C231.008 67.0899 231.05 66.8831 231.131 66.6903C231.213 66.4974 231.332 66.3222 231.482 66.1746C231.633 66.0271 231.811 65.9101 232.008 65.8305C232.205 65.7508 232.415 65.7099 232.628 65.7102H256.083C256.512 65.7102 256.924 65.8776 257.227 66.1755C257.53 66.4734 257.701 66.8774 257.701 67.2987C257.701 67.7199 257.53 68.124 257.227 68.4219C256.924 68.7198 256.512 68.8871 256.083 68.8871Z" fill="#CCCCCC"/>
<path d="M218.231 75.6381C221.023 75.6381 223.286 73.4157 223.286 70.6741C223.286 67.9326 221.023 65.7102 218.231 65.7102C215.439 65.7102 213.176 67.9326 213.176 70.6741C213.176 73.4157 215.439 75.6381 218.231 75.6381Z" fill="#6200EE"/>
<path d="M256.688 88.5756C257.581 88.5756 258.306 87.8644 258.306 86.9871C258.306 86.1099 257.581 85.3987 256.688 85.3987C255.795 85.3987 255.07 86.1099 255.07 86.9871C255.07 87.8644 255.795 88.5756 256.688 88.5756Z" fill="#E6E6E6"/>
<path d="M262.35 88.5756C263.243 88.5756 263.968 87.8644 263.968 86.9871C263.968 86.1099 263.243 85.3987 262.35 85.3987C261.457 85.3987 260.732 86.1099 260.732 86.9871C260.732 87.8644 261.457 88.5756 262.35 88.5756Z" fill="#E6E6E6"/>
<path d="M268.012 88.5756C268.906 88.5756 269.63 87.8644 269.63 86.9871C269.63 86.1099 268.906 85.3987 268.012 85.3987C267.119 85.3987 266.395 86.1099 266.395 86.9871C266.395 87.8644 267.119 88.5756 268.012 88.5756Z" fill="#E6E6E6"/>
<path d="M275.495 93.8121C275.551 93.3162 275.717 92.8383 275.981 92.4122C276.246 91.986 276.602 91.622 277.025 91.3456C277.448 91.0693 277.928 90.8874 278.43 90.8128C278.932 90.7382 279.445 90.7726 279.933 90.9137L287.116 81.0476L289.42 86.9302L282.245 95.3973C281.949 96.1856 281.37 96.84 280.615 97.2365C279.861 97.633 278.985 97.7441 278.153 97.5487C277.321 97.3533 276.591 96.865 276.101 96.1763C275.611 95.4876 275.396 94.6464 275.495 93.8121H275.495Z" fill="#A0616A"/>
<path d="M283.725 93.2797C283.612 93.2889 283.498 93.2861 283.386 93.2713C283.16 93.2417 282.944 93.1637 282.752 93.0429C282.561 92.922 282.399 92.7613 282.278 92.5721L280.76 90.2071C280.593 89.9489 280.509 89.6473 280.519 89.3416C280.53 89.0359 280.634 88.7404 280.818 88.4937L290.012 76.0875L284.036 60.9585C283.502 59.6274 283.522 58.1436 284.092 56.8269C284.662 55.5102 285.736 54.4661 287.082 53.9196C287.843 53.6063 288.665 53.4624 289.489 53.4983C290.313 53.5342 291.119 53.7491 291.849 54.1273C292.578 54.5056 293.213 55.0379 293.708 55.686C294.203 56.3341 294.546 57.0819 294.711 57.8755L298.419 75.651C298.677 76.9045 298.601 78.2023 298.198 79.4185C297.796 80.6347 297.08 81.7283 296.121 82.5932L284.642 92.8856C284.389 93.113 284.067 93.2516 283.725 93.2797Z" fill="#3F3D56"/>
<path d="M303.018 161.642H230.091C229.999 161.642 229.911 161.606 229.846 161.542C229.782 161.479 229.745 161.392 229.745 161.302C229.745 161.212 229.782 161.126 229.846 161.062C229.911 160.999 229.999 160.963 230.091 160.963H303.018C303.11 160.963 303.198 160.999 303.262 161.062C303.327 161.126 303.364 161.212 303.364 161.302C303.364 161.392 303.327 161.479 303.262 161.542C303.198 161.606 303.11 161.642 303.018 161.642Z" fill="#CCCCCC"/>
<path d="M115.307 77.1732H44.9408C44.0563 77.1722 43.2082 76.8267 42.5828 76.2125C41.9573 75.5983 41.6055 74.7656 41.6045 73.8969V38.7523C41.6055 37.8837 41.9573 37.0509 42.5828 36.4367C43.2082 35.8225 44.0563 35.4771 44.9408 35.4761H115.307C116.191 35.4771 117.039 35.8225 117.665 36.4367C118.29 37.0509 118.642 37.8837 118.643 38.7523V73.897C118.642 74.7656 118.29 75.5983 117.665 76.2125C117.039 76.8267 116.191 77.1722 115.307 77.1732Z" fill="#CCCCCC"/>
<path d="M114.498 74.7906H45.75C45.2943 74.7901 44.8574 74.6121 44.5352 74.2957C44.213 73.9793 44.0318 73.5503 44.0312 73.1028V39.5466C44.0318 39.0992 44.213 38.6702 44.5352 38.3538C44.8574 38.0374 45.2943 37.8594 45.75 37.8589H114.498C114.954 37.8594 115.391 38.0374 115.713 38.3538C116.035 38.6702 116.217 39.0992 116.217 39.5466V73.1028C116.217 73.5503 116.035 73.9793 115.713 74.2957C115.391 74.6121 114.954 74.7901 114.498 74.7906Z" fill="white"/>
<path d="M110.517 83.2628L102.785 75.6704L112.698 75.9165V82.3758C112.7 82.6245 112.627 82.8682 112.486 83.075C112.345 83.2818 112.144 83.442 111.909 83.5348C111.752 83.5995 111.583 83.633 111.412 83.6335C111.245 83.6329 111.08 83.5999 110.927 83.5363C110.773 83.4726 110.634 83.3797 110.517 83.2628Z" fill="#CCCCCC"/>
<path d="M106.128 54.82H71.3491C70.92 54.82 70.5086 54.6526 70.2052 54.3547C69.9019 54.0568 69.7314 53.6528 69.7314 53.2315C69.7314 52.8102 69.9019 52.4062 70.2052 52.1083C70.5086 51.8104 70.92 51.6431 71.3491 51.6431H106.128C106.557 51.6431 106.968 51.8104 107.271 52.1083C107.575 52.4062 107.745 52.8102 107.745 53.2315C107.745 53.6528 107.575 54.0568 107.271 54.3547C106.968 54.6526 106.557 54.82 106.128 54.82Z" fill="#CCCCCC"/>
<path d="M94.8044 48.069H71.3491C70.92 48.069 70.5086 47.9017 70.2052 47.6038C69.9019 47.3059 69.7314 46.9018 69.7314 46.4805C69.7314 46.0593 69.9019 45.6552 70.2052 45.3573C70.5086 45.0594 70.92 44.8921 71.3491 44.8921H94.8044C95.2334 44.8921 95.6449 45.0594 95.9482 45.3573C96.2516 45.6552 96.422 46.0593 96.422 46.4805C96.422 46.9018 96.2516 47.3059 95.9482 47.6038C95.6449 47.9017 95.2334 48.069 94.8044 48.069Z" fill="#CCCCCC"/>
<path d="M56.9525 54.82C59.7443 54.82 62.0075 52.5975 62.0075 49.856C62.0075 47.1145 59.7443 44.8921 56.9525 44.8921C54.1607 44.8921 51.8975 47.1145 51.8975 49.856C51.8975 52.5975 54.1607 54.82 56.9525 54.82Z" fill="#6200EE"/>
<path d="M95.4106 67.7575C96.304 67.7575 97.0282 67.0463 97.0282 66.169C97.0282 65.2917 96.304 64.5806 95.4106 64.5806C94.5172 64.5806 93.793 65.2917 93.793 66.169C93.793 67.0463 94.5172 67.7575 95.4106 67.7575Z" fill="#E6E6E6"/>
<path d="M101.072 67.7575C101.965 67.7575 102.689 67.0463 102.689 66.169C102.689 65.2917 101.965 64.5806 101.072 64.5806C100.178 64.5806 99.4541 65.2917 99.4541 66.169C99.4541 67.0463 100.178 67.7575 101.072 67.7575Z" fill="#E6E6E6"/>
<path d="M106.734 67.7575C107.627 67.7575 108.351 67.0463 108.351 66.169C108.351 65.2917 107.627 64.5806 106.734 64.5806C105.84 64.5806 105.116 65.2917 105.116 66.169C105.116 67.0463 105.84 67.7575 106.734 67.7575Z" fill="#E6E6E6"/>
<path d="M112.389 32.0996C111.911 32.2686 111.476 32.5385 111.116 32.8902C110.756 33.2419 110.478 33.667 110.303 34.1354C110.128 34.6039 110.06 35.1043 110.103 35.6014C110.147 36.0985 110.3 36.5803 110.554 37.0128L102.459 46.1732L108.822 47.0009L115.533 38.1751C116.245 37.709 116.757 37.0026 116.974 36.19C117.191 35.3774 117.097 34.5149 116.709 33.7661C116.321 33.0172 115.668 32.4339 114.871 32.1268C114.075 31.8196 113.192 31.8099 112.389 32.0996Z" fill="#FFB8B8"/>
<path d="M58.341 35.7668C58.5137 36.236 58.5795 36.7368 58.5337 37.2337C58.488 37.7306 58.3319 38.2116 58.0764 38.6429C57.8208 39.0742 57.4721 39.4452 57.0548 39.7298C56.6375 40.0144 56.1616 40.2057 55.6609 40.2902L53.6466 52.2561L48.9365 47.9748L51.5715 37.2681C51.4827 36.4326 51.7091 35.5941 52.2077 34.9116C52.7064 34.229 53.4428 33.7498 54.2772 33.5648C55.1116 33.3797 55.9862 33.5017 56.7352 33.9075C57.4842 34.3134 58.0556 34.9749 58.341 35.7668V35.7668Z" fill="#FFB8B8"/>
<path d="M70.9919 156.792L75.2293 156.792L77.245 140.742L70.9912 140.743L70.9919 156.792Z" fill="#FFB8B8"/>
<path d="M69.9102 155.433L78.2549 155.433H78.2552C78.9536 155.433 79.6451 155.568 80.2903 155.831C80.9356 156.093 81.5218 156.478 82.0156 156.963C82.5095 157.447 82.9012 158.023 83.1684 158.657C83.4357 159.29 83.5732 159.969 83.5732 160.655V160.825L69.9104 160.825L69.9102 155.433Z" fill="#2F2E41"/>
<path d="M49.2175 156.792L53.4549 156.792L55.4706 140.742L49.2168 140.743L49.2175 156.792Z" fill="#FFB8B8"/>
<path d="M48.1357 155.433L56.4805 155.433H56.4808C57.1792 155.433 57.8707 155.568 58.5159 155.831C59.1612 156.093 59.7474 156.478 60.2412 156.963C60.7351 157.447 61.1268 158.023 61.394 158.657C61.6613 159.29 61.7988 159.969 61.7988 160.655V160.825L48.136 160.825L48.1357 155.433Z" fill="#2F2E41"/>
<path d="M70.1071 47.2152C74.7954 47.2152 78.5961 43.483 78.5961 38.8792C78.5961 34.2754 74.7954 30.5432 70.1071 30.5432C65.4188 30.5432 61.6182 34.2754 61.6182 38.8792C61.6182 43.483 65.4188 47.2152 70.1071 47.2152Z" fill="#FFB8B8"/>
<path d="M69.0898 151.46L68.3879 107.54C68.3862 107.416 68.3382 107.297 68.2532 107.205C68.1681 107.113 68.0518 107.055 67.9261 107.041C67.8004 107.028 67.674 107.06 67.5707 107.131C67.4674 107.203 67.3943 107.309 67.3652 107.43L55.8589 150.39C55.7723 150.734 55.5682 151.038 55.2806 151.251C54.993 151.465 54.6395 151.575 54.279 151.564L47.9575 151.298C47.7426 151.289 47.532 151.236 47.3389 151.143C47.1458 151.05 46.9744 150.919 46.8357 150.757C46.6969 150.596 46.5938 150.408 46.5327 150.206C46.4717 150.003 46.4541 149.79 46.481 149.581L56.2445 94.3748L56.2645 94.219L83.4592 95.4825L83.6366 95.4904L77.805 151.552C77.7744 151.936 77.5979 152.294 77.3106 152.556C77.0233 152.818 76.6461 152.965 76.2541 152.966H70.645C70.2368 152.964 69.8455 152.806 69.5548 152.525C69.2641 152.243 69.0972 151.861 69.0898 151.46Z" fill="#2F2E41"/>
<path d="M90.5677 99.2028L51.1048 96.0226C50.8666 96.0034 50.6361 95.9306 50.4313 95.8098C50.2264 95.6889 50.0526 95.5234 49.9234 95.3259C49.7943 95.1285 49.7132 94.9044 49.6865 94.6712C49.6598 94.438 49.6882 94.2019 49.7695 93.9812L55.9841 77.109L56.3417 57.0835C56.3547 56.3566 56.5145 55.6394 56.8119 54.9736C57.1094 54.3078 57.5385 53.7066 58.0743 53.2049C58.6102 52.7032 59.2422 52.3109 59.9336 52.0509C60.6251 51.7909 61.3622 51.6683 62.1023 51.6903L64.7266 49.3542H74.3418L75.1791 50.4321L81.8694 51.4417C83.0611 51.6264 84.1607 52.1825 85.0059 53.0279C85.851 53.8733 86.397 54.9632 86.5631 56.1366L92.2363 97.4769C92.2658 97.6926 92.2481 97.912 92.1843 98.1204C92.1205 98.3288 92.0121 98.5214 91.8664 98.6853C91.7206 98.8492 91.5409 98.9806 91.3392 99.0708C91.1375 99.1609 90.9185 99.2078 90.6969 99.2081C90.6541 99.2081 90.6109 99.2064 90.5677 99.2028Z" fill="#2F2E41"/>
<path d="M82.8789 53.3829L99.7053 48.5419L107.32 38.6966C107.53 38.4255 107.826 38.2309 108.161 38.1438C108.496 38.0567 108.851 38.0822 109.17 38.216L113.925 40.2117C114.128 40.2967 114.31 40.4232 114.459 40.5825C114.608 40.7419 114.721 40.9306 114.79 41.1361C114.859 41.3416 114.883 41.5593 114.86 41.7746C114.838 41.9899 114.768 42.1979 114.657 42.3849L108.966 51.9749C108.04 53.5437 106.629 54.7825 104.938 55.5125L85.1474 64.1035L82.8789 53.3829Z" fill="#2F2E41"/>
<path d="M50.5968 60.6248C49.5912 59.9134 48.7893 58.9596 48.2684 57.8553C47.7476 56.751 47.5253 55.5336 47.6231 54.3204L48.3615 44.7128C48.3919 44.3291 48.5684 43.9707 48.8559 43.709C49.1433 43.4473 49.5205 43.3014 49.9125 43.3005H49.9263L55.5019 43.3493C55.7303 43.3513 55.9554 43.4027 56.1613 43.4999C56.3672 43.597 56.5488 43.7375 56.6932 43.9113C56.8375 44.0851 56.9411 44.288 56.9967 44.5056C57.0522 44.7232 57.0582 44.9501 57.0143 45.1702L55.9798 50.3533L63.3624 53.4165L57.1456 65.2932L50.5968 60.6248Z" fill="#2F2E41"/>
<path d="M75.0449 28.8836C75.0449 28.8836 66.1675 24.1896 61.3287 29.7295C56.4899 35.2694 63.1722 43.9325 63.1722 43.9325L72.6936 45.1117C72.6936 45.1117 73.0392 38.756 75.3062 38.8793C77.5731 39.0027 84.6136 30.9827 75.0449 28.8836Z" fill="#2F2E41"/>
<path d="M99.8862 161.302H26.9589C26.8672 161.302 26.7793 161.267 26.7145 161.203C26.6497 161.139 26.6133 161.053 26.6133 160.963C26.6133 160.873 26.6497 160.787 26.7145 160.723C26.7793 160.659 26.8672 160.624 26.9589 160.624H99.8862C99.9779 160.624 100.066 160.659 100.131 160.723C100.195 160.787 100.232 160.873 100.232 160.963C100.232 161.053 100.195 161.139 100.131 161.203C100.066 161.267 99.9779 161.302 99.8862 161.302Z" fill="#CCCCCC"/>
</svg>
